id,name,kana,en,theme,race,material,gender,released
1,ブーケ,buke,Rosie,cute,cat,wood,f,
2,キャラメル,kyarameru,Goldie,natural,dog,steel,f,
3,リッキー,rikki,Filbert,natural,squirrel,wood,m,
4,ツバクロ,tubakuro,Jay,sporty,bird,food,m,
5,アポロ,aporo,Apollo,cool,eagle,paper,m,
6,ジョン,jon,Butch,sporty,dog,steel,m,
7,ハンナ,hanna,Cherry,cool,dog,steel,f,
8,リリアン,ririan,Bunnie,cute,rabbit,wood,f,
9,エレフィン,erefin,Eloise,natural,elephant,steel,f,
10,レイニー,reini,Lily,cute,frog,wood,f,
11,ペーター,peta,Beau,natural,deer,steel,m,
12,グルミン,gurumin,Bluebear,cute,cub,steel,f,
13,ボルト,boruto,Tex,cool,penguin,cotton,m,
14,メリヤス,meriyasu,Vesta,rustic,sheep,paper,f,
15,ケンタ,kenta,Goose,rustic,chicken,wood,m,
16,マール,maru,Mitzi,rustic,cat,wood,f,
17,ビンタ,binta,Punchy,natural,cat,wood,m,
18,１ごう,itigou,Kid Cat,sporty,cat,wood,m,
19,クリスチーヌ,kurisutinu,Chrissy,cute,rabbit,wood,f,
20,タンボ,tanbo,Tad,sporty,frog,wood,m,
21,グラさん,gurasan,Bud,sporty,lion,cotton,m,
22,アップル,appuru,Apple,cute,hamster,wood,f,
23,メイ,mei,June,rustic,cub,steel,f,
24,フォアグラ,foagura,Drake,rustic,duck,steel,m,
25,ケチャップ,ketyappu,Ketchup,cute,duck,steel,f,
26,マーガレット,magaretto,Maggie,cute,pig,cotton,f,
27,マミィ,mami,Carrie,cute,kangaroo,steel,f,
28,ヒノコ,hinoko,Phoebe,cool,ostrich,steel,f,
29,ラン,ran,Sandy,cool,ostrich,steel,f,
30,マコト,makoto,Antonio,sporty,anteater,steel,m,
31,ジンペイ,jinpei,Moe,sporty,cat,wood,m,
32,プースケ,pusuke,Hopkins,sporty,rabbit,wood,m,
33,カックン,kakkun,Raddle,cool,frog,wood,m,
34,サンデー,sande,Rex,natural,lion,cotton,m,
35,ドレミ,doremi,Fauna,natural,deer,steel,f,
36,ハムスケ,hamusuke,Hamlet,natural,hamster,wood,m,
37,ももこ,momoko,Peanut,cute,squirrel,wood,f,
38,ジュン,jun,Marshal,rustic,squirrel,wood,m,
39,アセロラ,aserora,Cheri,sporty,cub,steel,f,
40,チャーミー,tyami,Charlise,sporty,bear,paper,f,
41,ペンタ,penta,Roald,natural,penguin,cotton,m,
42,アグネス,agunesu,Agnes,cool,pig,cotton,f,
43,リカルド,rikarudo,Kyle,cool,wolf,steel,m,
44,シュバルツ,syubarutu,Roscoe,cool,horse,steel,m,
45,セルバンテス,serubantesu,Angus,cool,bull,food,m,
46,ダンベル,danberu,Peewee,sporty,gorilla,steel,m,
47,さすけ,sasuke,Flip,sporty,monkey,steel,m,
48,アクリル,akuriru,Stella,cute,sheep,paper,f,
49,クスケチャ,kusuketya,Avery,rustic,eagle,paper,m,
50,エーミー,emi,Bitty,cute,hippo,cotton,f,
51,アルベルト,aruberuto,Alfonso,natural,alligator,wood,m,
52,ドミグラ,domigura,Ava,rustic,chicken,wood,f,
53,ホウサク,housaku,Boots,natural,alligator,wood,m,
54,スパーク,supaku,Static,cool,squirrel,wood,m,
55,フラッペ,hurappe,Sprinkle,cute,penguin,cotton,f,
56,マーサ,masa,Dotty,natural,rabbit,wood,f,
57,ツンドラ,tundora,Freya,cool,wolf,steel,f,
58,ロッキー,rokki,Eugene,cool,koala,paper,m,
59,ニコバン,nikoban,Bob,hip,cat,wood,m,
60,ジェシカ,jesika,Fuchsia,cool,deer,steel,f,
61,パッチ,patti,Stiches,hip,cub,steel,m,
62,ピーチク,pitiku,Twiggy,hip,bird,food,f,
63,フランソワ,huransowa,Francine,hip,rabbit,wood,f,
64,ジュペッティ,jupetti,Pietro,hip,sheep,paper,m,
65,パティ,patti,Merengue,hip,rhino,paper,f,
66,おくたろう,okutarou,Octavian,hip,octopus,paper,m,
67,サリー,sali,Margie,harmonious,elephant,steel,f,
68,ガンテツ,gantetu,Curt,harmonious,bear,paper,m,
69,ピータン,pitan,Bill,harmonious,duck,steel,m,
70,タツオ,tatuo,Drago,harmonious,alligator,wood,m,
71,ちとせ,titose,Gladys,harmonious,ostrich,steel,f,
72,タケル,takeru,Bam,sporty,deer,steel,m,
73,さっち,satti,Merry,cute,cat,wood,f,
74,ブロッコリー,blokkori,Broccolo,hip,mouse,cotton,m,
75,モモチ,momoti,Snake,harmonious,rabbit,wood,m,
76,ティーナ,tina,Tia,elegant,elephant,steel,f,
77,フリル,huriru,Muffy,elegant,sheep,paper,f,
78,アンソニー,ansoni,Colton,elegant,horse,steel,m,
79,ジュリア,juria,Julia,elegant,ostrich,steel,f,
80,ビアンカ,bianka,Whitney,elegant,wolf,steel,f,
81,セバスチャン,sebasutyan,Pierce,elegant,eagle,paper,m,
82,シェリー,syeri,Shari,cute,monkey,steel,f,
83,みぞれ,mizore,Wendy,hip,sheep,paper,f,
84,メープル,mepuru,Maple,natural,cub,steel,f,
85,ジーニョ,jinyo,Jitters,sporty,bird,paper,m,
86,サントス,santosu,O'Hare,cool,rabbit,wood,m,
87,パタヤ,pataya,Plucky,rustic,chicken,wood,f,
88,ゴメス,gomesu,Rowan,sporty,tiger,steel,m,
89,ハナコ,hanako,Naomi,modern,cow,food,f,
90,グミ,gumi,Poppy,modern,squirrel,wood,f,
91,ロボ,robo,Wolfgang,modern,wolf,steel,m,
92,チョコ,tyoko,Peppy,modern,rabbit,wood,f,
93,ネルソン,neruson,Zell,modern,deer,steel,m,
94,ブンジロウ,bunjirou,Lobo,historical,wolf,steel,m,
95,パーチク,patiku,Robin,historical,bird,food,f,
96,しもやけ,simoyake,Egbert,historical,chicken,wood,m,
97,はじめ,hajime,Tucker,historical,elephant,steel,m,
98,ノルマン,noruman,Vic,historical,bull,food,m,
99,バンタム,bantamu,Tom,cool,cat,wood,m,
100,ジャスミン,jasumin,Pekoe,harmonious,cub,steel,f,
101,ジュリー,juri,Julian,elegant,horse,steel,m,
102,まんたろう,mantarou,Boone,rustic,gorilla,steel,m,
103,ビス,bisu,Cube,hip,penguin,cotton,m,
104,チューこ,tyuko,Penelope,cute,mouse,cotton,f,
105,モンこ,monko,Elise,civic,monkey,steel,f,
106,モサキチ,mosakiti,Gaston,civic,rabbit,wood,m,
107,やさお,monko,Kidd,civic,goat,cotton,m,
108,カモミ,kamomi,Molly,civic,duck,steel,f,
109,ハカセ,hakase,Cobb,civic,pig,cotton,m,
110,マリリン,maririn,Claudia,elegant,tiger,food,f,20180925
111,ガチャ,gatya,Ribbot,cool,frog,wood,m,20180925
112,ゴンザレス,gonzaresu,Rocco,civic,hippo,cotton,m,20180925
113,メルボルン,meruborun,Alice,modern,koala,paper,f,20180925
114,ラッキー,rakki,Lucky,historical,dog,steel,m,20181016
115,キャビア,kyabia,Kiki,harmonious,cat,wood,f,20181016
116,アイーダ,aida,Diva,elegant,frog,wood,f,20181016
117,ロデオ,rodeo,Rodeo,civic,bull,food,m,20181016
118,ラザニア,razania,Anicotti,hip,mouse,cotton,f,20181016
119,ゆきみ,yukimi,Flurry,cute,hamster,wood,f,20181217
120,シベリア,siberia,Fang,modern,wolf,steel,m,20181217
121,オーロラ,orora,Aurora,civic,penguin,cotton,f,20181217
122,ナタリー,natari,Diana,elegant,deer,steel,f,20181217
123,コユキ,koyuki,Bianca,sporty,tiger,food,f,20181217
124,リリィ,riri,Skye,natural,wolf,steel,f,20190115
125,ホッケー,hokke,Puck,sporty,penguin,cotton,m,20190115
126,スナイル,sunairu,Hans,rustic,gorilla,steel,m,20190115
127,たいへいた,taiheita,Teddy,natural,bear,paper,m,20190130
128,オパール,oparu,Opal,harmonious,elephant,steel,f,20190130
129,のりっぺ,norippe,Pompom,hip,duck,steel,f,20190130
130,サバンナ,sabanna,Savannah,modern,horse,steel,f,20190130
131,パオロ,paoro,Paolo,hip,elephant,steel,m,20190130
132,ティーチャー,texitya,Leopold,civic,lion,cotton,m,20190130
133,あるみ,arumi,Anabelle,harmonious,anteater,steel,f,20190130
134,ナターシャ,natasya,Tashs,civic,squirrel,wood,f,20190130
135,チーズ,tizu,Chadder,modern,mouse,cotton,m,20190130
136,チーフ,tihu,Chief,cool,wolf,steel,m,20190130
137,ミラコ,mirako,Mira,hip,rabbit,wood,f,20190317
138,カルピ,karupi,Patty,hip,cow,food,f,20190317
139,ユキ,yuki,Chevre,civic,goat,cotton,f,20190317
140,くるぶし,kurubusi,Tank,sporty,rhino,paper,m,20190317
141,サラ,sara,Bree,civic,mouse,cotton,f,20190317
142,トンコ,tonko,Truffles,cute,pig,cotton,f,20190418
143,アリゲッティ,arigetti,Gayle,cute,alligator,wood,f,20190418
144,タンタン,tantan,Pinky,harmonious,bear,paper,f,20190418
145,タコリーナ,takorina,Marina,cute,octopus,paper,f,20190418
146,チッチ,titti,Nana,cute,monkey,steel,f,20190418
147,ブルース,burusu,Bruce,cool,deer,steel,m,20190517
148,キッズ,kizzu,Astrid,cool,kangaroo,steel,f,20190517
149,スクワット,sukuwatto,Spike,cool,rhino,paper,m,20190517
150,クロー,kuro,Groucho,cool,bear,paper,m,20190517
151,ジョッキー,jokki,Jacques,cool,bird,food,m,20190517
