[
{ "id": "1",  "name": "ブーケ",  "kana": "buke",  "en": "Rosie",  "theme": "cute",  "race": "cat",  "material": "wood",  "gender": "f",  "released": ""}, 
{ "id": "2",  "name": "キャラメル",  "kana": "kyarameru",  "en": "Goldie",  "theme": "natural",  "race": "dog",  "material": "steel",  "gender": "f",  "released": ""}, 
{ "id": "3",  "name": "リッキー",  "kana": "rikki",  "en": "Filbert",  "theme": "natural",  "race": "squirrel",  "material": "wood",  "gender": "m",  "released": ""}, 
{ "id": "4",  "name": "ツバクロ",  "kana": "tubakuro",  "en": "Jay",  "theme": "sporty",  "race": "bird",  "material": "food",  "gender": "m",  "released": ""}, 
{ "id": "5",  "name": "アポロ",  "kana": "aporo",  "en": "Apollo",  "theme": "cool",  "race": "eagle",  "material": "paper",  "gender": "m",  "released": ""}, 
{ "id": "6",  "name": "ジョン",  "kana": "jon",  "en": "Butch",  "theme": "sporty",  "race": "dog",  "material": "steel",  "gender": "m",  "released": ""}, 
{ "id": "7",  "name": "ハンナ",  "kana": "hanna",  "en": "Cherry",  "theme": "cool",  "race": "dog",  "material": "steel",  "gender": "f",  "released": ""}, 
{ "id": "8",  "name": "リリアン",  "kana": "ririan",  "en": "Bunnie",  "theme": "cute",  "race": "rabbit",  "material": "wood",  "gender": "f",  "released": ""}, 
{ "id": "9",  "name": "エレフィン",  "kana": "erefin",  "en": "Eloise",  "theme": "natural",  "race": "elephant",  "material": "steel",  "gender": "f",  "released": ""}, 
{ "id": "10",  "name": "レイニー",  "kana": "reini",  "en": "Lily",  "theme": "cute",  "race": "frog",  "material": "wood",  "gender": "f",  "released": ""}, 
{ "id": "11",  "name": "ペーター",  "kana": "peta",  "en": "Beau",  "theme": "natural",  "race": "deer",  "material": "steel",  "gender": "m",  "released": ""}, 
{ "id": "12",  "name": "グルミン",  "kana": "gurumin",  "en": "Bluebear",  "theme": "cute",  "race": "cub",  "material": "steel",  "gender": "f",  "released": ""}, 
{ "id": "13",  "name": "ボルト",  "kana": "boruto",  "en": "Tex",  "theme": "cool",  "race": "penguin",  "material": "cotton",  "gender": "m",  "released": ""}, 
{ "id": "14",  "name": "メリヤス",  "kana": "meriyasu",  "en": "Vesta",  "theme": "rustic",  "race": "sheep",  "material": "paper",  "gender": "f",  "released": ""}, 
{ "id": "15",  "name": "ケンタ",  "kana": "kenta",  "en": "Goose",  "theme": "rustic",  "race": "chicken",  "material": "wood",  "gender": "m",  "released": ""}, 
{ "id": "16",  "name": "マール",  "kana": "maru",  "en": "Mitzi",  "theme": "rustic",  "race": "cat",  "material": "wood",  "gender": "f",  "released": ""}, 
{ "id": "17",  "name": "ビンタ",  "kana": "binta",  "en": "Punchy",  "theme": "natural",  "race": "cat",  "material": "wood",  "gender": "m",  "released": ""}, 
{ "id": "18",  "name": "１ごう",  "kana": "itigou",  "en": "Kid Cat",  "theme": "sporty",  "race": "cat",  "material": "wood",  "gender": "m",  "released": ""}, 
{ "id": "19",  "name": "クリスチーヌ",  "kana": "kurisutinu",  "en": "Chrissy",  "theme": "cute",  "race": "rabbit",  "material": "wood",  "gender": "f",  "released": ""}, 
{ "id": "20",  "name": "タンボ",  "kana": "tanbo",  "en": "Tad",  "theme": "sporty",  "race": "frog",  "material": "wood",  "gender": "m",  "released": ""}, 
{ "id": "21",  "name": "グラさん",  "kana": "gurasan",  "en": "Bud",  "theme": "sporty",  "race": "lion",  "material": "cotton",  "gender": "m",  "released": ""}, 
{ "id": "22",  "name": "アップル",  "kana": "appuru",  "en": "Apple",  "theme": "cute",  "race": "hamster",  "material": "wood",  "gender": "f",  "released": ""}, 
{ "id": "23",  "name": "メイ",  "kana": "mei",  "en": "June",  "theme": "rustic",  "race": "cub",  "material": "steel",  "gender": "f",  "released": ""}, 
{ "id": "24",  "name": "フォアグラ",  "kana": "foagura",  "en": "Drake",  "theme": "rustic",  "race": "duck",  "material": "steel",  "gender": "m",  "released": ""}, 
{ "id": "25",  "name": "ケチャップ",  "kana": "ketyappu",  "en": "Ketchup",  "theme": "cute",  "race": "duck",  "material": "steel",  "gender": "f",  "released": ""}, 
{ "id": "26",  "name": "マーガレット",  "kana": "magaretto",  "en": "Maggie",  "theme": "cute",  "race": "pig",  "material": "cotton",  "gender": "f",  "released": ""}, 
{ "id": "27",  "name": "マミィ",  "kana": "mami",  "en": "Carrie",  "theme": "cute",  "race": "kangaroo",  "material": "steel",  "gender": "f",  "released": ""}, 
{ "id": "28",  "name": "ヒノコ",  "kana": "hinoko",  "en": "Phoebe",  "theme": "cool",  "race": "ostrich",  "material": "steel",  "gender": "f",  "released": ""}, 
{ "id": "29",  "name": "ラン",  "kana": "ran",  "en": "Sandy",  "theme": "cool",  "race": "ostrich",  "material": "steel",  "gender": "f",  "released": ""}, 
{ "id": "30",  "name": "マコト",  "kana": "makoto",  "en": "Antonio",  "theme": "sporty",  "race": "anteater",  "material": "steel",  "gender": "m",  "released": ""}, 
{ "id": "31",  "name": "ジンペイ",  "kana": "jinpei",  "en": "Moe",  "theme": "sporty",  "race": "cat",  "material": "wood",  "gender": "m",  "released": ""}, 
{ "id": "32",  "name": "プースケ",  "kana": "pusuke",  "en": "Hopkins",  "theme": "sporty",  "race": "rabbit",  "material": "wood",  "gender": "m",  "released": ""}, 
{ "id": "33",  "name": "カックン",  "kana": "kakkun",  "en": "Raddle",  "theme": "cool",  "race": "frog",  "material": "wood",  "gender": "m",  "released": ""}, 
{ "id": "34",  "name": "サンデー",  "kana": "sande",  "en": "Rex",  "theme": "natural",  "race": "lion",  "material": "cotton",  "gender": "m",  "released": ""}, 
{ "id": "35",  "name": "ドレミ",  "kana": "doremi",  "en": "Fauna",  "theme": "natural",  "race": "deer",  "material": "steel",  "gender": "f",  "released": ""}, 
{ "id": "36",  "name": "ハムスケ",  "kana": "hamusuke",  "en": "Hamlet",  "theme": "natural",  "race": "hamster",  "material": "wood",  "gender": "m",  "released": ""}, 
{ "id": "37",  "name": "ももこ",  "kana": "momoko",  "en": "Peanut",  "theme": "cute",  "race": "squirrel",  "material": "wood",  "gender": "f",  "released": ""}, 
{ "id": "38",  "name": "ジュン",  "kana": "jun",  "en": "Marshal",  "theme": "rustic",  "race": "squirrel",  "material": "wood",  "gender": "m",  "released": ""}, 
{ "id": "39",  "name": "アセロラ",  "kana": "aserora",  "en": "Cheri",  "theme": "sporty",  "race": "cub",  "material": "steel",  "gender": "f",  "released": ""}, 
{ "id": "40",  "name": "チャーミー",  "kana": "tyami",  "en": "Charlise",  "theme": "sporty",  "race": "bear",  "material": "paper",  "gender": "f",  "released": ""}, 
{ "id": "41",  "name": "ペンタ",  "kana": "penta",  "en": "Roald",  "theme": "natural",  "race": "penguin",  "material": "cotton",  "gender": "m",  "released": ""}, 
{ "id": "42",  "name": "アグネス",  "kana": "agunesu",  "en": "Agnes",  "theme": "cool",  "race": "pig",  "material": "cotton",  "gender": "f",  "released": ""}, 
{ "id": "43",  "name": "リカルド",  "kana": "rikarudo",  "en": "Kyle",  "theme": "cool",  "race": "wolf",  "material": "steel",  "gender": "m",  "released": ""}, 
{ "id": "44",  "name": "シュバルツ",  "kana": "syubarutu",  "en": "Roscoe",  "theme": "cool",  "race": "horse",  "material": "steel",  "gender": "m",  "released": ""}, 
{ "id": "45",  "name": "セルバンテス",  "kana": "serubantesu",  "en": "Angus",  "theme": "cool",  "race": "bull",  "material": "food",  "gender": "m",  "released": ""}, 
{ "id": "46",  "name": "ダンベル",  "kana": "danberu",  "en": "Peewee",  "theme": "sporty",  "race": "gorilla",  "material": "steel",  "gender": "m",  "released": ""}, 
{ "id": "47",  "name": "さすけ",  "kana": "sasuke",  "en": "Flip",  "theme": "sporty",  "race": "monkey",  "material": "steel",  "gender": "m",  "released": ""}, 
{ "id": "48",  "name": "アクリル",  "kana": "akuriru",  "en": "Stella",  "theme": "cute",  "race": "sheep",  "material": "paper",  "gender": "f",  "released": ""}, 
{ "id": "49",  "name": "クスケチャ",  "kana": "kusuketya",  "en": "Avery",  "theme": "rustic",  "race": "eagle",  "material": "paper",  "gender": "m",  "released": ""}, 
{ "id": "50",  "name": "エーミー",  "kana": "emi",  "en": "Bitty",  "theme": "cute",  "race": "hippo",  "material": "cotton",  "gender": "f",  "released": ""}, 
{ "id": "51",  "name": "アルベルト",  "kana": "aruberuto",  "en": "Alfonso",  "theme": "natural",  "race": "alligator",  "material": "wood",  "gender": "m",  "released": ""}, 
{ "id": "52",  "name": "ドミグラ",  "kana": "domigura",  "en": "Ava",  "theme": "rustic",  "race": "chicken",  "material": "wood",  "gender": "f",  "released": ""}, 
{ "id": "53",  "name": "ホウサク",  "kana": "housaku",  "en": "Boots",  "theme": "natural",  "race": "alligator",  "material": "wood",  "gender": "m",  "released": ""}, 
{ "id": "54",  "name": "スパーク",  "kana": "supaku",  "en": "Static",  "theme": "cool",  "race": "squirrel",  "material": "wood",  "gender": "m",  "released": ""}, 
{ "id": "55",  "name": "フラッペ",  "kana": "hurappe",  "en": "Sprinkle",  "theme": "cute",  "race": "penguin",  "material": "cotton",  "gender": "f",  "released": ""}, 
{ "id": "56",  "name": "マーサ",  "kana": "masa",  "en": "Dotty",  "theme": "natural",  "race": "rabbit",  "material": "wood",  "gender": "f",  "released": ""}, 
{ "id": "57",  "name": "ツンドラ",  "kana": "tundora",  "en": "Freya",  "theme": "cool",  "race": "wolf",  "material": "steel",  "gender": "f",  "released": ""}, 
{ "id": "58",  "name": "ロッキー",  "kana": "rokki",  "en": "Eugene",  "theme": "cool",  "race": "koala",  "material": "paper",  "gender": "m",  "released": ""}, 
{ "id": "59",  "name": "ニコバン",  "kana": "nikoban",  "en": "Bob",  "theme": "hip",  "race": "cat",  "material": "wood",  "gender": "m",  "released": ""}, 
{ "id": "60",  "name": "ジェシカ",  "kana": "jesika",  "en": "Fuchsia",  "theme": "cool",  "race": "deer",  "material": "steel",  "gender": "f",  "released": ""}, 
{ "id": "61",  "name": "パッチ",  "kana": "patti",  "en": "Stiches",  "theme": "hip",  "race": "cub",  "material": "steel",  "gender": "m",  "released": ""}, 
{ "id": "62",  "name": "ピーチク",  "kana": "pitiku",  "en": "Twiggy",  "theme": "hip",  "race": "bird",  "material": "food",  "gender": "f",  "released": ""}, 
{ "id": "63",  "name": "フランソワ",  "kana": "huransowa",  "en": "Francine",  "theme": "hip",  "race": "rabbit",  "material": "wood",  "gender": "f",  "released": ""}, 
{ "id": "64",  "name": "ジュペッティ",  "kana": "jupetti",  "en": "Pietro",  "theme": "hip",  "race": "sheep",  "material": "paper",  "gender": "m",  "released": ""}, 
{ "id": "65",  "name": "パティ",  "kana": "patti",  "en": "Merengue",  "theme": "hip",  "race": "rhino",  "material": "paper",  "gender": "f",  "released": ""}, 
{ "id": "66",  "name": "おくたろう",  "kana": "okutarou",  "en": "Octavian",  "theme": "hip",  "race": "octopus",  "material": "paper",  "gender": "m",  "released": ""}, 
{ "id": "67",  "name": "サリー",  "kana": "sali",  "en": "Margie",  "theme": "harmonious",  "race": "elephant",  "material": "steel",  "gender": "f",  "released": ""}, 
{ "id": "68",  "name": "ガンテツ",  "kana": "gantetu",  "en": "Curt",  "theme": "harmonious",  "race": "bear",  "material": "paper",  "gender": "m",  "released": ""}, 
{ "id": "69",  "name": "ピータン",  "kana": "pitan",  "en": "Bill",  "theme": "harmonious",  "race": "duck",  "material": "steel",  "gender": "m",  "released": ""}, 
{ "id": "70",  "name": "タツオ",  "kana": "tatuo",  "en": "Drago",  "theme": "harmonious",  "race": "alligator",  "material": "wood",  "gender": "m",  "released": ""}, 
{ "id": "71",  "name": "ちとせ",  "kana": "titose",  "en": "Gladys",  "theme": "harmonious",  "race": "ostrich",  "material": "steel",  "gender": "f",  "released": ""}, 
{ "id": "72",  "name": "タケル",  "kana": "takeru",  "en": "Bam",  "theme": "sporty",  "race": "deer",  "material": "steel",  "gender": "m",  "released": ""}, 
{ "id": "73",  "name": "さっち",  "kana": "satti",  "en": "Merry",  "theme": "cute",  "race": "cat",  "material": "wood",  "gender": "f",  "released": ""}, 
{ "id": "74",  "name": "ブロッコリー",  "kana": "blokkori",  "en": "Broccolo",  "theme": "hip",  "race": "mouse",  "material": "cotton",  "gender": "m",  "released": ""}, 
{ "id": "75",  "name": "モモチ",  "kana": "momoti",  "en": "Snake",  "theme": "harmonious",  "race": "rabbit",  "material": "wood",  "gender": "m",  "released": ""}, 
{ "id": "76",  "name": "ティーナ",  "kana": "tina",  "en": "Tia",  "theme": "elegant",  "race": "elephant",  "material": "steel",  "gender": "f",  "released": ""}, 
{ "id": "77",  "name": "フリル",  "kana": "huriru",  "en": "Muffy",  "theme": "elegant",  "race": "sheep",  "material": "paper",  "gender": "f",  "released": ""}, 
{ "id": "78",  "name": "アンソニー",  "kana": "ansoni",  "en": "Colton",  "theme": "elegant",  "race": "horse",  "material": "steel",  "gender": "m",  "released": ""}, 
{ "id": "79",  "name": "ジュリア",  "kana": "juria",  "en": "Julia",  "theme": "elegant",  "race": "ostrich",  "material": "steel",  "gender": "f",  "released": ""}, 
{ "id": "80",  "name": "ビアンカ",  "kana": "bianka",  "en": "Whitney",  "theme": "elegant",  "race": "wolf",  "material": "steel",  "gender": "f",  "released": ""}, 
{ "id": "81",  "name": "セバスチャン",  "kana": "sebasutyan",  "en": "Pierce",  "theme": "elegant",  "race": "eagle",  "material": "paper",  "gender": "m",  "released": ""}, 
{ "id": "82",  "name": "シェリー",  "kana": "syeri",  "en": "Shari",  "theme": "cute",  "race": "monkey",  "material": "steel",  "gender": "f",  "released": ""}, 
{ "id": "83",  "name": "みぞれ",  "kana": "mizore",  "en": "Wendy",  "theme": "hip",  "race": "sheep",  "material": "paper",  "gender": "f",  "released": ""}, 
{ "id": "84",  "name": "メープル",  "kana": "mepuru",  "en": "Maple",  "theme": "natural",  "race": "cub",  "material": "steel",  "gender": "f",  "released": ""}, 
{ "id": "85",  "name": "ジーニョ",  "kana": "jinyo",  "en": "Jitters",  "theme": "sporty",  "race": "bird",  "material": "paper",  "gender": "m",  "released": ""}, 
{ "id": "86",  "name": "サントス",  "kana": "santosu",  "en": "O'Hare",  "theme": "cool",  "race": "rabbit",  "material": "wood",  "gender": "m",  "released": ""}, 
{ "id": "87",  "name": "パタヤ",  "kana": "pataya",  "en": "Plucky",  "theme": "rustic",  "race": "chicken",  "material": "wood",  "gender": "f",  "released": ""}, 
{ "id": "88",  "name": "ゴメス",  "kana": "gomesu",  "en": "Rowan",  "theme": "sporty",  "race": "tiger",  "material": "steel",  "gender": "m",  "released": ""}, 
{ "id": "89",  "name": "ハナコ",  "kana": "hanako",  "en": "Naomi",  "theme": "modern",  "race": "cow",  "material": "food",  "gender": "f",  "released": ""}, 
{ "id": "90",  "name": "グミ",  "kana": "gumi",  "en": "Poppy",  "theme": "modern",  "race": "squirrel",  "material": "wood",  "gender": "f",  "released": ""}, 
{ "id": "91",  "name": "ロボ",  "kana": "robo",  "en": "Wolfgang",  "theme": "modern",  "race": "wolf",  "material": "steel",  "gender": "m",  "released": ""}, 
{ "id": "92",  "name": "チョコ",  "kana": "tyoko",  "en": "Peppy",  "theme": "modern",  "race": "rabbit",  "material": "wood",  "gender": "f",  "released": ""}, 
{ "id": "93",  "name": "ネルソン",  "kana": "neruson",  "en": "Zell",  "theme": "modern",  "race": "deer",  "material": "steel",  "gender": "m",  "released": ""}, 
{ "id": "94",  "name": "ブンジロウ",  "kana": "bunjirou",  "en": "Lobo",  "theme": "historical",  "race": "wolf",  "material": "steel",  "gender": "m",  "released": ""}, 
{ "id": "95",  "name": "パーチク",  "kana": "patiku",  "en": "Robin",  "theme": "historical",  "race": "bird",  "material": "food",  "gender": "f",  "released": ""}, 
{ "id": "96",  "name": "しもやけ",  "kana": "simoyake",  "en": "Egbert",  "theme": "historical",  "race": "chicken",  "material": "wood",  "gender": "m",  "released": ""}, 
{ "id": "97",  "name": "はじめ",  "kana": "hajime",  "en": "Tucker",  "theme": "historical",  "race": "elephant",  "material": "steel",  "gender": "m",  "released": ""}, 
{ "id": "98",  "name": "ノルマン",  "kana": "noruman",  "en": "Vic",  "theme": "historical",  "race": "bull",  "material": "food",  "gender": "m",  "released": ""}, 
{ "id": "99",  "name": "バンタム",  "kana": "bantamu",  "en": "Tom",  "theme": "cool",  "race": "cat",  "material": "wood",  "gender": "m",  "released": ""}, 
{ "id": "100",  "name": "ジャスミン",  "kana": "jasumin",  "en": "Pekoe",  "theme": "harmonious",  "race": "cub",  "material": "steel",  "gender": "f",  "released": ""}, 
{ "id": "101",  "name": "ジュリー",  "kana": "juri",  "en": "Julian",  "theme": "elegant",  "race": "horse",  "material": "steel",  "gender": "m",  "released": ""}, 
{ "id": "102",  "name": "まんたろう",  "kana": "mantarou",  "en": "Boone",  "theme": "rustic",  "race": "gorilla",  "material": "steel",  "gender": "m",  "released": ""}, 
{ "id": "103",  "name": "ビス",  "kana": "bisu",  "en": "Cube",  "theme": "hip",  "race": "penguin",  "material": "cotton",  "gender": "m",  "released": ""}, 
{ "id": "104",  "name": "チューこ",  "kana": "tyuko",  "en": "Penelope",  "theme": "cute",  "race": "mouse",  "material": "cotton",  "gender": "f",  "released": ""}, 
{ "id": "105",  "name": "モンこ",  "kana": "monko",  "en": "Elise",  "theme": "civic",  "race": "monkey",  "material": "steel",  "gender": "f",  "released": ""}, 
{ "id": "106",  "name": "モサキチ",  "kana": "mosakiti",  "en": "Gaston",  "theme": "civic",  "race": "rabbit",  "material": "wood",  "gender": "m",  "released": ""}, 
{ "id": "107",  "name": "やさお",  "kana": "monko",  "en": "Kidd",  "theme": "civic",  "race": "goat",  "material": "cotton",  "gender": "m",  "released": ""}, 
{ "id": "108",  "name": "カモミ",  "kana": "kamomi",  "en": "Molly",  "theme": "civic",  "race": "duck",  "material": "steel",  "gender": "f",  "released": ""}, 
{ "id": "109",  "name": "ハカセ",  "kana": "hakase",  "en": "Cobb",  "theme": "civic",  "race": "pig",  "material": "cotton",  "gender": "m",  "released": ""}, 
{ "id": "110",  "name": "マリリン",  "kana": "maririn",  "en": "Claudia",  "theme": "elegant",  "race": "tiger",  "material": "food",  "gender": "f",  "released": "20180925"}, 
{ "id": "111",  "name": "ガチャ",  "kana": "gatya",  "en": "Ribbot",  "theme": "cool",  "race": "frog",  "material": "wood",  "gender": "m",  "released": "20180925"}, 
{ "id": "112",  "name": "ゴンザレス",  "kana": "gonzaresu",  "en": "Rocco",  "theme": "civic",  "race": "hippo",  "material": "cotton",  "gender": "m",  "released": "20180925"}, 
{ "id": "113",  "name": "メルボルン",  "kana": "meruborun",  "en": "Alice",  "theme": "modern",  "race": "koala",  "material": "paper",  "gender": "f",  "released": "20180925"}, 
{ "id": "114",  "name": "ラッキー",  "kana": "rakki",  "en": "Lucky",  "theme": "historical",  "race": "dog",  "material": "steel",  "gender": "m",  "released": "20181016"}, 
{ "id": "115",  "name": "キャビア",  "kana": "kyabia",  "en": "Kiki",  "theme": "harmonious",  "race": "cat",  "material": "wood",  "gender": "f",  "released": "20181016"}, 
{ "id": "116",  "name": "アイーダ",  "kana": "aida",  "en": "Diva",  "theme": "elegant",  "race": "frog",  "material": "wood",  "gender": "f",  "released": "20181016"}, 
{ "id": "117",  "name": "ロデオ",  "kana": "rodeo",  "en": "Rodeo",  "theme": "civic",  "race": "bull",  "material": "food",  "gender": "m",  "released": "20181016"}, 
{ "id": "118",  "name": "ラザニア",  "kana": "razania",  "en": "Anicotti",  "theme": "hip",  "race": "mouse",  "material": "cotton",  "gender": "f",  "released": "20181016"}, 
{ "id": "119",  "name": "ゆきみ",  "kana": "yukimi",  "en": "Flurry",  "theme": "cute",  "race": "hamster",  "material": "wood",  "gender": "f",  "released": "20181217"}, 
{ "id": "120",  "name": "シベリア",  "kana": "siberia",  "en": "Fang",  "theme": "modern",  "race": "wolf",  "material": "steel",  "gender": "m",  "released": "20181217"}, 
{ "id": "121",  "name": "オーロラ",  "kana": "orora",  "en": "Aurora",  "theme": "civic",  "race": "penguin",  "material": "cotton",  "gender": "f",  "released": "20181217"}, 
{ "id": "122",  "name": "ナタリー",  "kana": "natari",  "en": "Diana",  "theme": "elegant",  "race": "deer",  "material": "steel",  "gender": "f",  "released": "20181217"}, 
{ "id": "123",  "name": "コユキ",  "kana": "koyuki",  "en": "Bianca",  "theme": "sporty",  "race": "tiger",  "material": "food",  "gender": "f",  "released": "20181217"}, 
{ "id": "124",  "name": "リリィ",  "kana": "riri",  "en": "Skye",  "theme": "natural",  "race": "wolf",  "material": "steel",  "gender": "f",  "released": "20190115"}, 
{ "id": "125",  "name": "ホッケー",  "kana": "hokke",  "en": "Puck",  "theme": "sporty",  "race": "penguin",  "material": "cotton",  "gender": "m",  "released": "20190115"}, 
{ "id": "126",  "name": "スナイル",  "kana": "sunairu",  "en": "Hans",  "theme": "rustic",  "race": "gorilla",  "material": "steel",  "gender": "m",  "released": "20190115"}, 
{ "id": "127",  "name": "たいへいた",  "kana": "taiheita",  "en": "Teddy",  "theme": "natural",  "race": "bear",  "material": "paper",  "gender": "m",  "released": "20190130"}, 
{ "id": "128",  "name": "オパール",  "kana": "oparu",  "en": "Opal",  "theme": "harmonious",  "race": "elephant",  "material": "steel",  "gender": "f",  "released": "20190130"}, 
{ "id": "129",  "name": "のりっぺ",  "kana": "norippe",  "en": "Pompom",  "theme": "hip",  "race": "duck",  "material": "steel",  "gender": "f",  "released": "20190130"}, 
{ "id": "130",  "name": "サバンナ",  "kana": "sabanna",  "en": "Savannah",  "theme": "modern",  "race": "horse",  "material": "steel",  "gender": "f",  "released": "20190130"}, 
{ "id": "131",  "name": "パオロ",  "kana": "paoro",  "en": "Paolo",  "theme": "hip",  "race": "elephant",  "material": "steel",  "gender": "m",  "released": "20190130"}, 
{ "id": "132",  "name": "ティーチャー",  "kana": "texitya",  "en": "Leopold",  "theme": "civic",  "race": "lion",  "material": "cotton",  "gender": "m",  "released": "20190130"}, 
{ "id": "133",  "name": "あるみ",  "kana": "arumi",  "en": "Anabelle",  "theme": "harmonious",  "race": "anteater",  "material": "steel",  "gender": "f",  "released": "20190130"}, 
{ "id": "134",  "name": "ナターシャ",  "kana": "natasya",  "en": "Tashs",  "theme": "civic",  "race": "squirrel",  "material": "wood",  "gender": "f",  "released": "20190130"}, 
{ "id": "135",  "name": "チーズ",  "kana": "tizu",  "en": "Chadder",  "theme": "modern",  "race": "mouse",  "material": "cotton",  "gender": "m",  "released": "20190130"}, 
{ "id": "136",  "name": "チーフ",  "kana": "tihu",  "en": "Chief",  "theme": "cool",  "race": "wolf",  "material": "steel",  "gender": "m",  "released": "20190130"}, 
{ "id": "137",  "name": "ミラコ",  "kana": "mirako",  "en": "Mira",  "theme": "hip",  "race": "rabbit",  "material": "wood",  "gender": "f",  "released": "20190317"}, 
{ "id": "138",  "name": "カルピ",  "kana": "karupi",  "en": "Patty",  "theme": "hip",  "race": "cow",  "material": "food",  "gender": "f",  "released": "20190317"}, 
{ "id": "139",  "name": "ユキ",  "kana": "yuki",  "en": "Chevre",  "theme": "civic",  "race": "goat",  "material": "cotton",  "gender": "f",  "released": "20190317"}, 
{ "id": "140",  "name": "くるぶし",  "kana": "kurubusi",  "en": "Tank",  "theme": "sporty",  "race": "rhino",  "material": "paper",  "gender": "m",  "released": "20190317"}, 
{ "id": "141",  "name": "サラ",  "kana": "sara",  "en": "Bree",  "theme": "civic",  "race": "mouse",  "material": "cotton",  "gender": "f",  "released": "20190317"}, 
{ "id": "142",  "name": "トンコ",  "kana": "tonko",  "en": "Truffles",  "theme": "cute",  "race": "pig",  "material": "cotton",  "gender": "f",  "released": "20190418"}, 
{ "id": "143",  "name": "アリゲッティ",  "kana": "arigetti",  "en": "Gayle",  "theme": "cute",  "race": "alligator",  "material": "wood",  "gender": "f",  "released": "20190418"}, 
{ "id": "144",  "name": "タンタン",  "kana": "tantan",  "en": "Pinky",  "theme": "harmonious",  "race": "bear",  "material": "paper",  "gender": "f",  "released": "20190418"}, 
{ "id": "145",  "name": "タコリーナ",  "kana": "takorina",  "en": "Marina",  "theme": "cute",  "race": "octopus",  "material": "paper",  "gender": "f",  "released": "20190418"}, 
{ "id": "146",  "name": "チッチ",  "kana": "titti",  "en": "Nana",  "theme": "cute",  "race": "monkey",  "material": "steel",  "gender": "f",  "released": "20190418"}, 
{ "id": "147",  "name": "ブルース",  "kana": "burusu",  "en": "Bruce",  "theme": "cool",  "race": "deer",  "material": "steel",  "gender": "m",  "released": "20190517"}, 
{ "id": "148",  "name": "キッズ",  "kana": "kizzu",  "en": "Astrid",  "theme": "cool",  "race": "kangaroo",  "material": "steel",  "gender": "f",  "released": "20190517"}, 
{ "id": "149",  "name": "スクワット",  "kana": "sukuwatto",  "en": "Spike",  "theme": "cool",  "race": "rhino",  "material": "paper",  "gender": "m",  "released": "20190517"}, 
{ "id": "150",  "name": "クロー",  "kana": "kuro",  "en": "Groucho",  "theme": "cool",  "race": "bear",  "material": "paper",  "gender": "m",  "released": "20190517"}, 
{ "id": "151",  "name": "ジョッキー",  "kana": "jokki",  "en": "Jacques",  "theme": "cool",  "race": "bird",  "material": "food",  "gender": "m",  "released": "20190517"}
]